…
### a) How many aisles are there, and which aisles are the most items ordered from?

``` r
aisles_data = instacart %>%
  group_by(aisle) %>%
  summarize(count = n()) %>% 
  arrange(desc(count))
aisles_data
```

    ## # A tibble: 134 x 2
    ##    aisle                          count
    ##    <chr>                          <int>
    ##  1 fresh vegetables              150609
    ##  2 fresh fruits                  150473
    ##  3 packaged vegetables fruits     78493
    ##  4 yogurt                         55240
    ##  5 packaged cheese                41699
    ##  6 water seltzer sparkling water  36617
    ##  7 milk                           32644
    ##  8 chips pretzels                 31269
    ##  9 soy lactosefree                26240
    ## 10 bread                          23635
    ## # … with 124 more rows
…
brfss = brfss %>% 
  janitor::clean_names() %>% 
  filter(topic == "Overall Health", response %in% c("Excellent","Very good","Good","Fair","Poor")) %>% 
  mutate(
    response = factor(response,levels = c("Poor","Fair","Good","Very good","Excellent"))
  ) %>% 
  rename(state = locationabbr)

brfss
```

    ## # A tibble: 10,625 x 23
    ##     year state locationdesc class topic question response sample_size
    ##    <int> <chr> <chr>        <chr> <chr> <chr>    <fct>          <int>
    ##  1  2010 AL    AL - Jeffer… Heal… Over… How is … Excelle…          94
    ##  2  2010 AL    AL - Jeffer… Heal… Over… How is … Very go…         148
    ##  3  2010 AL    AL - Jeffer… Heal… Over… How is … Good             208
    ##  4  2010 AL    AL - Jeffer… Heal… Over… How is … Fair             107
    ##  5  2010 AL    AL - Jeffer… Heal… Over… How is … Poor              45
    ##  6  2010 AL    AL - Mobile… Heal… Over… How is … Excelle…          91
    ##  7  2010 AL    AL - Mobile… Heal… Over… How is … Very go…         177
    ##  8  2010 AL    AL - Mobile… Heal… Over… How is … Good             224
    ##  9  2010 AL    AL - Mobile… Heal… Over… How is … Fair             120
    ## 10  2010 AL    AL - Mobile… Heal… Over… How is … Poor              66
    ## # … with 10,615 more rows, and 15 more variables: data_value <dbl>,
    ## #   confidence_limit_low <dbl>, confidence_limit_high <dbl>,
    ## #   display_order <int>, data_value_unit <chr>, data_value_type <chr>,
    ## #   data_value_footnote_symbol <chr>, data_value_footnote <chr>,
    ## #   data_source <chr>, class_id <chr>, topic_id <chr>, location_id <chr>,
    ## #   question_id <chr>, respid <chr>, geo_location <chr>

### a) In 2002, which states were observed at 7 or more locations? What about in 2010?

``` r
brfss %>% 
  filter(year == 2002) %>% 
  group_by(state) %>% 
  summarize(
    count = n()
  ) %>% 
  filter(count >= 7)
```

    ## # A tibble: 36 x 2
    ##    state count
    ##    <chr> <int>
    ##  1 AZ       10
    ##  2 CO       20
    ##  3 CT       35
    ##  4 DE       15
    ##  5 FL       35
    ##  6 GA       15
    ##  7 HI       20
    ##  8 ID       10
    ##  9 IL       15
    ## 10 IN       10
    ## # … with 26 more rows

``` r
brfss %>% 
  filter(year == 2010) %>% 
  group_by(state) %>% 
  summarize(
    count = n()
  ) %>% 
  filter(count >= 7)
```

    ## # A tibble: 45 x 2
    ##    state count
    ##    <chr> <int>
    ##  1 AL       15
    ##  2 AR       15
    ##  3 AZ       15
    ##  4 CA       60
    ##  5 CO       35
    ##  6 CT       25
    ##  7 DE       15
    ##  8 FL      205
    ##  9 GA       20
    ## 10 HI       20
    ## # … with 35 more rows
…
### b) Construct a dataset that is limited to Excellent responses, and contains, year, state, and a variable that averages the data\_value across locations within a state. Make a “spaghetti” plot of this average value over time within a state (that is, make a plot showing a line for each state across years – the geom\_line geometry and group aesthetic will help).

``` r
ext_avg_data_value = brfss %>% 
  filter(response == "Excellent") %>% 
  select(year,state,data_value) %>% 
  group_by(year,state) %>% 
  summarize(
    average_value = mean(data_value,na.rm = TRUE)
  )

ext_avg_data_value
```

    ## # A tibble: 443 x 3
    ## # Groups:   year [9]
    ##     year state average_value
    ##    <int> <chr>         <dbl>
    ##  1  2002 AK             27.9
    ##  2  2002 AL             18.5
    ##  3  2002 AR             24.1
    ##  4  2002 AZ             24.1
    ##  5  2002 CA             22.7
    ##  6  2002 CO             23.1
    ##  7  2002 CT             29.1
    ##  8  2002 DC             29.3
    ##  9  2002 DE             20.9
    ## 10  2002 FL             25.7
    ## # … with 433 more rows
…
    ## Parsed with column specification:
    ## cols(
    ##   .default = col_double(),
    ##   day = col_character()
    ## )

    ## See spec(...) for full column specifications.

``` r
accel
```

    ## # A tibble: 50,400 x 6
    ##     week weekday_weekend day_id day    activity_minute counts
    ##    <dbl> <chr>            <dbl> <chr>  <chr>            <dbl>
    ##  1     1 weekday              1 Friday 1                 88.4
    ##  2     1 weekday              1 Friday 2                 82.2
    ##  3     1 weekday              1 Friday 3                 64.4
    ##  4     1 weekday              1 Friday 4                 70.0
    ##  5     1 weekday              1 Friday 5                 75.0
    ##  6     1 weekday              1 Friday 6                 66.3
    ##  7     1 weekday              1 Friday 7                 53.8
    ##  8     1 weekday              1 Friday 8                 47.8
    ##  9     1 weekday              1 Friday 9                 55.5
    ## 10     1 weekday              1 Friday 10                43.0
    ## # … with 50,390 more rows
…
### b) Traditional analyses of accelerometer data focus on the total activity over the day. Using your tidied dataset, aggregate accross minutes to create a total activity variable for each day, and create a table showing these totals. Are any trends apparent?

``` r
accel_total = accel %>% 
  group_by(day_id) %>% 
  summarize(
    total = sum(counts,na.rm = TRUE)
  ) 
accel_total 
```

    ## # A tibble: 35 x 2
    ##    day_id   total
    ##     <dbl>   <dbl>
    ##  1      1 480543.
    ##  2      2  78828.
    ##  3      3 376254 
    ##  4      4 631105 
    ##  5      5 355924.
    ##  6      6 307094.
    ##  7      7 340115.
    ##  8      8 568839 
    ##  9      9 295431 
    ## 10     10 607175 
    ## # … with 25 more rows
…
